Sup_ID,Company_Name,LastName,FirstName,E-mail,Designation,Business_No,Landline_No,Mobile_No,Fax_No,Address,City,State,Pincode,Country,Website,Notes,Attachments
1,"Supplier A",Andersen,"Elizabeth A.",NULL,"Sales Manager",NULL,NULL,NULL,NULL,NULL,NULL,NULL,NULL,NULL,NULL,NULL,
2,"Supplier B",Weiler,Cornelia,NULL,"Sales Manager",NULL,NULL,NULL,NULL,NULL,NULL,NULL,NULL,NULL,NULL,NULL,
3,"Supplier C",Kelley,Madeleine,NULL,"Sales Representative",NULL,NULL,NULL,NULL,NULL,NULL,NULL,NULL,NULL,NULL,NULL,
4,"Supplier D",Sato,Naoki,NULL,"Marketing Manager",NULL,NULL,NULL,NULL,NULL,NULL,NULL,NULL,NULL,NULL,NULL,
5,"Supplier E",Hernandez-Echevarria,Amaya,NULL,"Sales Manager",NULL,NULL,NULL,NULL,NULL,NULL,NULL,NULL,NULL,NULL,NULL,
6,"Supplier F",Hayakawa,Satomi,NULL,"Marketing Assistant",NULL,NULL,NULL,NULL,NULL,NULL,NULL,NULL,NULL,NULL,NULL,
7,"Supplier G",Glasson,Stuart,NULL,"Marketing Manager",NULL,NULL,NULL,NULL,NULL,NULL,NULL,NULL,NULL,NULL,NULL,
8,"Supplier H",Dunton,"Bryn Paul",NULL,"Sales Representative",NULL,NULL,NULL,NULL,NULL,NULL,NULL,NULL,NULL,NULL,NULL,
9,"Supplier I",Sandberg,Mikael,NULL,"Sales Manager",NULL,NULL,NULL,NULL,NULL,NULL,NULL,NULL,NULL,NULL,NULL,
10,"Supplier J",Sousa,Luis,NULL,"Sales Manager",NULL,NULL,NULL,NULL,NULL,NULL,NULL,NULL,NULL,NULL,NULL,
